{
  "project_info": {
    "project_number": "125217469600",
    "firebase_url": "https://citypassmobile.firebaseio.com",
    "project_id": "citypassmobile",
    "storage_bucket": "citypassmobile.appspot.com"
  },
  "client": [
    {
      "client_info": {
        "mobilesdk_app_id": "1:125217469600:android:10ac453c9a9564b7",
        "android_client_info": {
          "package_name": "citypass.mobile"
        }
      },
      "oauth_client": [
        {
          "client_id": "125217469600-g64ic8u56sf8d05jov6iij9cnhc725q0.apps.googleusercontent.com",
          "client_type": 1,
          "android_info": {
            "package_name": "citypass.mobile",
            "certificate_hash": "ee44ddacb2f48e18ce7896bd78f86113ea65dab1"
          }
        },
        {
          "client_id": "125217469600-fj7a4t3pnkhahll1f2pvm426ooe9980f.apps.googleusercontent.com",
          "client_type": 3
        }
      ],
      "api_key": [
        {
          "current_key": "AIzaSyDhFBzyKcy-nHxvCC4p6iDkWGnLLt2y-M8"
        }
      ],
      "services": {
        "appinvite_service": {
          "other_platform_oauth_client": [
            {
              "client_id": "125217469600-fj7a4t3pnkhahll1f2pvm426ooe9980f.apps.googleusercontent.com",
              "client_type": 3
            }
          ]
        }
      }
    }
  ],
  "configuration_version": "1"
}